<svg width="21" height="21" viewBox="0 0 21 21" fill="none" xmlns="http://www.w3.org/2000/svg">
<path d="M10.1508 7.29374L16.8174 0.627069L19.6746 3.48421L13.0079 10.1509L20.1508 17.2937L17.2936 20.1509L10.1508 13.008L3.48409 19.6747L0.626947 16.8175L7.29361 10.1509L0.150757 3.00802L3.0079 0.150879L10.1508 7.29374Z" fill="white"/>
</svg>
