<svg width="20" height="20" viewBox="0 0 20 20" fill="none" xmlns="http://www.w3.org/2000/svg">
<circle cx="10" cy="10" r="10" fill="#00559B"/>
<path d="M15 9V11L5 11L5 9L15 9Z" fill="white"/>
</svg>
